CELL_ID,SCGP
1,2
2,4
3,2
4,4
5,2
6,4
7,4
8,4
9,4
10,4
11,2
12,4
13,4
14,4
15,0
16,2
17,4
18,4
19,4
20,4
21,4
22,0
23,4
24,4
25,1
26,4
27,4
28,4
29,4
30,4
31,4
32,4
33,1
34,4
35,1
36,4
37,4
38,4
39,4
40,4
41,4
42,4
43,4
44,1
45,4
46,4
47,4
48,4
49,4
50,4
51,4
52,4
53,4
54,4
55,4
56,4
57,4
58,4
59,4
60,4
61,4
62,4
63,4
64,4
65,4
66,4
67,4
68,4
69,4
70,4
71,4
72,4
73,4
74,4
75,4
76,4
77,4
78,4
79,4
80,4
81,4
82,4
83,4
84,4
85,4
86,4
87,4
88,4
89,4
90,4
91,4
92,4
93,4
94,4
95,4
96,4
97,4
98,4
99,4
100,4
101,4
102,4
103,4
104,4
105,4
106,4
107,4
108,4
109,4
110,4
111,4
112,4
113,4
114,4
115,1
116,4
117,4
118,4
119,4
120,4
121,4
122,4
123,4
124,4
125,4
126,4
127,4
128,4
129,4
130,4
131,4
132,4
133,4
134,4
135,4
136,4
137,1
138,1
139,4
140,4
141,1
142,4
143,4
144,4
145,1
146,4
147,4
148,4
149,4
150,4
151,4
152,4
153,4
154,1
155,1
156,4
157,4
158,4
159,4
160,4
161,4
162,4
163,4
164,1
165,4
166,4
167,1
168,4
169,1
170,1
171,1
172,1
173,4
174,4
175,4
176,4
177,1
178,4
179,1
180,1
181,1
182,1
183,2
184,1
185,4
186,2
187,4
188,4
189,2
190,2
191,4
192,4
193,1
194,1
195,1
196,4
197,1
198,1
199,1
200,4
201,2
202,2
203,1
204,1
205,2
206,1
207,2
208,4
209,2
210,2
211,1
212,4
213,4
214,4
215,4
216,2
217,2
218,0
219,4
220,4
221,0
222,1
223,1
224,2
225,1
226,2
227,1
228,2
229,2
230,2
231,2
232,2
233,-1
234,1
235,0
236,1
237,4
238,2
239,1
240,2
241,2
242,1
243,2
244,1
245,4
246,4
247,2
248,2
249,4
250,2
251,0
252,2
253,0
254,2
255,2
256,2
257,2
258,2
259,2
260,2
261,0
262,4
263,4
264,4
265,4
266,1
267,0
268,2
269,2
270,2
271,4
272,2
273,4
274,4
275,0
276,2
277,1
278,2
279,2
280,0
281,2
282,2
283,2
284,2
285,2
286,2
287,1
288,0
289,1
290,2
291,2
292,2
293,2
294,0
295,2
296,0
297,2
298,1
299,1
300,4
301,2
302,2
303,1
304,2
305,2
306,1
307,2
308,2
309,2
310,2
311,1
312,2
313,2
314,2
315,0
316,0
317,2
318,0
319,2
320,0
321,2
322,1
323,0
324,0
325,0
326,2
327,2
328,0
329,2
330,2
331,2
332,2
333,0
334,1
335,0
336,2
337,2
338,0
339,0
340,2
341,2
342,2
343,1
344,1
345,1
346,1
347,0
348,2
349,2
350,1
351,0
352,2
353,1
354,2
355,1
356,2
357,1
358,0
359,0
360,0
361,1
362,2
363,1
364,2
365,2
366,0
367,0
368,0
369,0
370,1
371,1
372,1
373,2
374,2
375,0
376,2
377,2
378,1
379,0
380,1
381,0
382,1
383,0
384,0
385,2
386,0
387,0
388,1
389,0
390,1
391,0
392,2
393,2
394,0
395,0
396,0
397,1
398,0
399,0
400,0
401,1
402,0
403,1
404,0
405,2
406,0
407,1
408,1
409,1
410,1
411,0
412,0
413,1
414,0
415,0
416,1
417,1
418,2
419,0
420,2
421,0
422,0
423,0
424,0
425,1
426,1
427,1
428,1
429,0
430,2
431,3
432,1
433,1
434,0
435,2
436,1
437,1
438,2
439,1
440,0
441,2
442,1
443,2
444,1
445,0
446,2
447,1
448,1
449,0
450,0
451,0
452,1
453,0
454,1
455,0
456,0
457,2
458,1
459,0
460,1
461,1
462,2
463,2
464,2
465,0
466,0
467,1
468,0
469,1
470,2
471,1
472,2
473,0
474,3
475,0
476,2
477,0
478,2
479,0
480,0
481,0
482,3
483,2
484,0
485,2
486,0
487,0
488,2
489,2
490,1
491,0
492,0
493,2
494,1
495,1
496,2
497,0
498,0
499,2
500,1
501,1
502,1
503,1
504,2
505,0
506,0
507,1
508,1
509,1
510,1
511,2
512,0
513,2
514,3
515,0
516,0
517,0
518,0
519,0
520,1
521,3
522,0
523,0
524,0
525,2
526,2
527,0
528,1
529,0
530,0
531,3
532,2
533,1
534,0
535,0
536,1
537,0
538,0
539,1
540,0
541,0
542,1
543,1
544,0
545,3
546,0
547,0
548,0
549,1
550,3
551,0
552,2
553,0
554,3
555,0
556,0
557,1
558,1
559,0
560,0
561,2
562,1
563,1
564,0
565,0
566,0
567,0
568,1
569,1
570,0
571,0
572,0
573,0
574,3
575,0
576,1
577,0
578,0
579,2
580,1
581,0
582,3
583,1
584,0
585,0
586,0
587,1
588,2
589,0
590,3
591,0
592,0
593,0
594,0
595,1
596,2
597,0
598,3
599,2
600,0
601,0
602,0
603,1
604,3
605,0
606,0
607,0
608,0
609,0
610,1
611,0
612,0
613,0
614,1
615,0
616,0
617,0
618,0
619,1
620,1
621,3
622,0
623,0
624,0
625,1
626,0
627,0
628,0
629,0
630,0
631,1
632,0
633,0
634,1
635,0
636,0
637,1
638,0
639,1
640,0
641,0
642,1
643,1
644,0
645,0
646,0
647,1
648,0
649,3
650,0
651,0
652,1
653,0
654,0
655,3
656,0
657,0
658,0
659,1
660,0
661,0
662,3
663,1
664,0
665,0
666,1
667,3
668,0
669,1
670,1
671,3
672,1
673,0
674,0
675,0
676,1
677,0
678,0
679,0
680,3
681,0
682,0
683,0
684,3
685,3
686,0
687,0
688,0
689,1
690,1
691,1
692,0
693,0
694,0
695,0
696,3
697,1
698,0
699,1
700,0
701,0
702,0
703,0
704,0
705,0
706,1
707,0
708,1
709,0
710,0
711,1
712,0
713,0
714,0
715,0
716,1
717,0
718,0
719,1
720,1
721,0
722,0
723,1
724,1
725,1
726,1
727,0
728,1
729,0
730,0
731,0
732,1
733,1
734,0
735,0
736,1
737,0
738,0
739,1
740,0
741,0
742,0
743,1
744,1
745,0
746,1
747,0
748,0
749,1
750,0
751,0
752,0
753,0
754,1
755,0
756,0
757,1
758,1
759,0
760,0
761,0
762,0
763,0
764,0
765,1
766,0
767,1
768,0
769,1
770,0
771,0
772,0
773,0
774,0
775,0
776,1
777,1
778,0
779,1
780,0
781,0
782,0
783,0
784,0
785,0
786,0
787,1
788,0
789,1
790,0
791,0
792,0
793,0
794,0
795,0
796,0
797,0
798,0
799,0
800,1
801,1
802,0
803,0
804,0
805,1
806,0
807,0
808,1
809,1
810,0
811,0
812,1
813,0
814,0
815,0
816,1
817,0
818,0
819,0
820,0
821,1
822,1
823,0
824,0
825,0
826,0
827,0
828,0
829,0
830,0
831,0
832,0
833,0
834,1
835,1
836,0
837,0
838,0
839,0
840,0
841,0
842,0
843,0
844,1
845,1
846,1
847,0
848,0
849,0
850,0
851,0
852,0
853,0
854,0
855,0
856,0
857,0
858,0
859,0
860,0
861,1
862,1
863,0
864,1
865,0
866,1
867,1
868,1
869,1
870,1
871,0
872,1
873,0
874,1
875,0
876,1
877,0
878,2
879,0
880,0
881,0
882,0
883,0
884,1
885,0
886,0
887,0
888,0
889,0
890,0
891,0
892,0
893,0
894,0
895,1
896,0
897,0
898,2
899,0
900,0
901,1
902,0
903,0
904,0
905,0
906,1
907,1
908,0
909,0
910,0
911,0
912,1
913,0
914,1
915,1
916,1
917,1
918,0
919,0
920,0
921,0
922,1
923,0
924,0
925,3
926,0
927,0
928,2
929,0
930,0
931,1
932,2
933,0
934,1
935,1
936,3
937,1
938,1
939,1
940,1
941,0
942,0
943,1
944,0
945,0
946,0
947,0
948,0
949,0
950,0
951,1
952,0
953,0
954,0
955,0
956,1
957,0
958,0
959,3
960,1
961,0
962,0
963,0
964,0
965,0
966,1
967,0
968,1
969,1
970,1
971,0
972,0
973,0
974,0
975,0
976,0
977,0
978,0
979,0
980,0
981,0
982,0
983,0
984,0
985,0
986,1
987,0
988,1
989,1
990,1
991,0
992,0
993,0
994,1
995,0
996,1
997,0
998,2
999,1
1000,1
1001,0
1002,0
1003,0
1004,1
1005,0
1006,0
1007,0
1008,0
1009,1
1010,0
1011,1
1012,0
1013,1
1014,0
1015,1
1016,0
1017,0
1018,1
1019,0
1020,0
1021,0
1022,0
1023,0
1024,0
1025,1
1026,0
1027,1
1028,0
1029,0
1030,1
1031,0
1032,0
1033,1
1034,2
1035,0
1036,0
1037,1
1038,0
1039,1
1040,0
1041,0
1042,0
1043,0
1044,1
1045,1
1046,1
1047,0
1048,0
1049,0
1050,1
1051,1
1052,0
1053,0
1054,2
1055,1
1056,0
1057,0
1058,1
1059,0
1060,0
1061,1
1062,0
1063,0
1064,0
1065,0
1066,0
1067,0
1068,0
1069,0
1070,1
1071,1
1072,0
1073,0
1074,0
1075,0
1076,0
1077,0
1078,2
1079,0
1080,0
1081,0
1082,0
1083,0
1084,1
1085,0
1086,0
1087,2
1088,0
1089,1
1090,0
1091,1
1092,0
1093,0
1094,0
1095,0
1096,0
1097,0
1098,0
1099,0
1100,0
1101,0
1102,0
1103,0
1104,0
1105,1
1106,0
1107,1
1108,1
1109,0
1110,0
1111,1
1112,0
1113,0
1114,1
1115,0
1116,1
1117,0
1118,0
1119,1
1120,1
1121,0
1122,1
1123,0
1124,0
1125,1
1126,0
1127,0
1128,2
1129,1
1130,1
1131,0
1132,0
1133,1
1134,0
1135,0
1136,1
1137,0
1138,0
1139,1
1140,0
1141,0
1142,1
1143,1
1144,1
1145,0
1146,0
1147,1
1148,0
1149,1
1150,1
1151,1
1152,0
1153,0
1154,0
1155,1
1156,0
1157,0
1158,1
1159,0
1160,1
1161,0
1162,0
1163,1
1164,1
1165,1
1166,0
1167,0
1168,0
1169,0
1170,1
1171,1
1172,0
1173,1
1174,0
1175,0
1176,1
1177,1
1178,2
1179,0
1180,1
1181,0
1182,0
1183,0
1184,0
1185,0
1186,0
1187,0
1188,1
1189,0
1190,0
1191,0
1192,1
1193,0
1194,1
1195,1
1196,1
1197,0
1198,0
1199,1
1200,0
1201,0
1202,0
1203,2
1204,0
1205,0
1206,1
1207,2
1208,0
1209,0
1210,1
1211,1
1212,1
1213,1
1214,0
1215,3
1216,0
1217,0
1218,0
1219,1
1220,0
1221,0
1222,0
1223,0
1224,1
1225,0
1226,0
1227,3
1228,1
1229,0
1230,0
1231,0
1232,0
1233,1
1234,0
1235,0
1236,1
1237,1
1238,0
1239,1
1240,0
1241,0
1242,0
1243,0
1244,1
1245,0
1246,1
1247,0
1248,1
1249,1
1250,0
1251,0
1252,0
1253,0
1254,1
1255,1
1256,1
1257,0
1258,1
1259,1
1260,0
1261,1
1262,0
1263,0
1264,0
1265,0
1266,0
1267,0
1268,0
1269,0
1270,1
1271,0
1272,0
1273,0
1274,0
1275,1
1276,1
1277,1
1278,1
1279,1
1280,1
1281,0
1282,0
1283,1
1284,0
1285,0
1286,0
1287,0
1288,1
1289,0
1290,0
1291,0
1292,0
1293,1
1294,0
1295,0
1296,0
1297,0
1298,0
1299,1
1300,0
1301,0
1302,0
1303,0
1304,1
1305,0
1306,0
1307,0
1308,0
1309,0
1310,0
1311,0
1312,0
1313,0
1314,1
1315,0
1316,0
1317,0
1318,1
1319,0
1320,0
1321,0
1322,0
1323,0
1324,0
1325,0
1326,1
1327,0
1328,0
1329,1
1330,0
1331,0
1332,1
1333,0
1334,0
1335,4
1336,1
1337,0
1338,0
1339,1
1340,0
1341,1
1342,0
1343,0
1344,1
1345,1
1346,0
1347,0
1348,0
1349,0
1350,1
1351,0
1352,0
1353,0
1354,0
1355,0
1356,0
1357,0
1358,1
1359,1
1360,0
1361,0
1362,0
1363,1
1364,1
1365,0
1366,0
1367,0
1368,0
1369,0
1370,1
1371,0
1372,4
1373,0
1374,4
1375,0
1376,0
1377,0
1378,0
1379,1
1380,1
1381,1
1382,0
1383,0
1384,0
1385,0
1386,0
1387,1
1388,0
1389,0
1390,4
1391,0
1392,1
1393,0
1394,0
1395,0
1396,1
1397,1
1398,0
1399,1
1400,4
1401,0
1402,0
1403,0
1404,0
1405,1
1406,1
1407,0
1408,0
1409,4
1410,0
1411,4
1412,4
1413,0
1414,1
1415,1
1416,0
1417,0
1418,0
1419,1
1420,4
1421,1
1422,0
1423,1
1424,0
1425,1
1426,0
1427,1
1428,1
1429,0
1430,0
1431,0
1432,0
1433,1
1434,1
1435,1
1436,0
1437,0
1438,0
1439,0
1440,1
1441,1
1442,1
1443,1
1444,1
1445,0
1446,1
1447,1
1448,1
1449,1
1450,1
1451,0
1452,0
1453,0
1454,0
1455,0
1456,4
1457,0
1458,1
1459,0
1460,1
1461,0
1462,0
1463,1
1464,0
1465,2
1466,0
1467,0
1468,0
1469,0
1470,1
1471,0
1472,0
1473,1
1474,0
1475,2
1476,4
1477,1
1478,1
1479,2
1480,0
1481,0
1482,1
1483,1
1484,2
1485,0
1486,0
1487,0
1488,2
1489,0
1490,0
1491,0
1492,0
1493,4
1494,2
1495,4
1496,0
1497,0
1498,1
1499,1
1500,4
1501,0
1502,0
1503,1
1504,4
1505,0
1506,0
1507,0
1508,0
1509,1
1510,1
1511,0
1512,0
1513,0
1514,1
1515,2
1516,1
1517,2
1518,2
1519,2
1520,1
1521,0
1522,0
1523,1
1524,1
1525,2
1526,2
1527,4
1528,1
1529,2
1530,0
1531,1
1532,1
1533,0
1534,0
1535,0
1536,0
1537,0
1538,0
1539,0
1540,1
1541,1
1542,1
1543,1
1544,0
1545,0
1546,2
1547,0
1548,1
1549,2
1550,1
1551,2
1552,0
1553,1
1554,2
1555,1
1556,1
1557,1
1558,0
1559,2
1560,2
1561,2
1562,0
1563,2
1564,2
1565,0
1566,2
1567,0
1568,2
1569,1
1570,1
1571,0
1572,0
1573,2
1574,0
1575,0
1576,4
1577,1
1578,1
1579,2
1580,0
1581,1
1582,1
1583,0
1584,1
1585,0
1586,0
1587,1
1588,2
1589,2
1590,2
1591,1
1592,1
1593,0
1594,0
1595,1
1596,0
1597,0
1598,2
1599,1
1600,2
1601,2
1602,0
1603,1
1604,0
1605,0
1606,2
1607,2
1608,1
1609,0
1610,0
1611,1
1612,2
1613,2
1614,1
1615,0
1616,1
1617,1
1618,0
1619,1
1620,2
1621,0
1622,0
1623,1
1624,1
1625,0
1626,0
1627,1
1628,0
1629,1
1630,2
1631,0
1632,1
1633,1
1634,2
1635,1
1636,1
1637,0
1638,0
1639,0
1640,0
1641,0
1642,0
1643,0
1644,2
1645,0
1646,0
1647,2
1648,1
1649,2
1650,0
1651,0
1652,1
1653,0
1654,0
1655,0
1656,1
1657,1
1658,1
1659,0
1660,0
1661,0
1662,1
1663,2
1664,0
1665,0
1666,2
1667,0
1668,1
1669,1
1670,2
1671,1
1672,1
1673,2
1674,0
1675,1
1676,1
1677,1
1678,1
1679,2
1680,0
1681,2
1682,0
1683,0
1684,1
1685,1
1686,1
1687,2
1688,0
1689,0
1690,2
1691,1
1692,2
1693,1
1694,0
1695,0
1696,0
1697,2
1698,2
1699,2
1700,0
1701,1
1702,0
1703,0
1704,1
1705,1
1706,1
1707,2
1708,1
1709,1
1710,0
1711,0
1712,0
1713,1
1714,2
1715,0
1716,0
1717,0
1718,0
1719,0
1720,2
1721,0
1722,2
1723,1
1724,0
1725,0
1726,0
1727,0
1728,2
1729,2
1730,0
1731,1
1732,0
1733,1
1734,0
1735,1
1736,0
1737,2
1738,3
1739,2
1740,2
1741,2
1742,0
1743,0
1744,2
1745,0
1746,2
1747,1
1748,1
1749,1
1750,1
1751,2
1752,3
1753,1
1754,2
1755,1
1756,0
1757,0
1758,0
1759,2
1760,1
1761,0
1762,0
1763,1
1764,0
1765,2
1766,1
1767,0
1768,3
1769,1
1770,2
1771,0
1772,0
1773,1
1774,0
1775,1
1776,0
1777,1
1778,2
1779,2
1780,0
1781,0
1782,0
1783,0
1784,0
1785,3
1786,3
1787,3
1788,3
1789,0
1790,0
1791,0
1792,1
1793,1
1794,0
1795,0
1796,2
1797,2
1798,1
1799,3
1800,2
1801,0
1802,0
1803,2
1804,2
1805,0
1806,0
1807,1
1808,1
1809,0
1810,3
1811,1
1812,2
1813,0
1814,0
1815,2
1816,0
1817,1
1818,1
1819,2
1820,2
1821,0
1822,0
1823,3
1824,1
1825,0
1826,1
1827,2
1828,0
1829,3
1830,0
1831,0
1832,0
1833,3
1834,0
1835,3
1836,3
1837,0
1838,0
1839,0
1840,0
1841,0
1842,0
1843,3
1844,2
1845,2
1846,1
1847,0
1848,0
1849,0
1850,0
1851,3
1852,2
1853,1
1854,2
1855,0
1856,0
1857,0
1858,3
1859,2
1860,1
1861,0
1862,1
1863,3
1864,0
1865,0
1866,0
1867,0
1868,1
1869,3
1870,2
1871,0
1872,0
1873,1
1874,0
1875,1
1876,0
1877,0
1878,0
1879,0
1880,3
1881,1
1882,0
1883,3
1884,1
1885,1
1886,2
1887,3
1888,1
1889,3
1890,0
1891,0
1892,0
1893,2
1894,2
1895,0
1896,3
1897,0
1898,2
1899,0
1900,0
1901,0
1902,0
1903,0
1904,0
1905,0
1906,0
1907,1
1908,0
1909,0
1910,1
1911,1
1912,1
1913,1
1914,1
1915,1
1916,0
1917,3
1918,2
1919,2
1920,0
1921,0
1922,1
1923,0
1924,0
1925,0
1926,1
1927,0
1928,1
1929,0
1930,1
1931,1
1932,2
1933,1
1934,2
1935,3
1936,0
1937,0
1938,2
1939,0
1940,0
1941,3
1942,2
1943,1
1944,3
1945,0
1946,1
1947,1
1948,3
1949,1
1950,3
1951,1
1952,2
1953,0
1954,1
1955,1
1956,3
1957,0
1958,2
1959,1
1960,1
1961,1
1962,2
1963,1
1964,2
1965,1
1966,1
1967,0
1968,3
1969,3
1970,2
1971,2
1972,2
1973,1
1974,0
1975,2
1976,1
1977,1
1978,0
1979,0
1980,0
1981,0
1982,2
1983,0
1984,0
1985,1
1986,2
1987,1
1988,0
1989,3
1990,2
1991,0
1992,0
1993,3
1994,3
1995,1
1996,0
1997,0
1998,0
1999,0
2000,3
2001,3
2002,2
2003,0
2004,0
2005,1
2006,3
2007,0
2008,2
2009,0
2010,3
2011,0
2012,2
2013,2
2014,0
2015,2
2016,0
2017,0
2018,3
2019,1
2020,0
2021,1
2022,2
2023,0
2024,0
2025,1
2026,0
2027,1
2028,0
2029,2
2030,1
2031,1
2032,1
2033,3
2034,0
2035,2
2036,4
2037,0
2038,3
2039,0
2040,0
2041,0
2042,3
2043,0
2044,1
2045,0
2046,3
2047,0
2048,0
2049,0
2050,2
2051,3
2052,0
2053,2
2054,1
2055,0
2056,0
2057,0
2058,2
2059,0
2060,2
2061,3
2062,3
2063,0
2064,1
2065,3
2066,0
2067,1
2068,4
2069,2
2070,0
2071,0
2072,3
2073,1
2074,2
2075,2
2076,2
2077,3
2078,0
2079,3
2080,3
2081,2
2082,1
2083,2
2084,0
2085,1
2086,2
2087,1
2088,0
2089,1
2090,0
2091,3
2092,0
2093,2
2094,1
2095,0
2096,2
2097,0
2098,1
2099,0
2100,-1
2101,0
2102,3
2103,0
2104,1
2105,0
2106,3
2107,3
2108,0
2109,1
2110,0
2111,0
2112,0
2113,0
2114,2
2115,0
2116,3
2117,2
2118,2
2119,0
2120,3
2121,2
2122,0
2123,0
2124,3
2125,0
2126,2
2127,1
2128,0
2129,3
2130,2
2131,3
2132,1
2133,0
2134,0
2135,3
2136,0
2137,2
2138,2
2139,2
2140,0
2141,2
2142,0
2143,2
2144,2
2145,2
2146,0
2147,0
2148,3
2149,3
2150,3
2151,2
2152,0
2153,0
2154,3
2155,0
2156,1
2157,0
2158,1
2159,1
2160,3
2161,2
2162,0
2163,0
2164,0
2165,1
2166,1
2167,0
2168,2
2169,3
2170,3
2171,0
2172,1
2173,0
2174,0
2175,2
2176,0
2177,0
2178,2
2179,1
2180,0
2181,0
2182,1
2183,0
2184,3
2185,3
2186,1
2187,1
2188,1
2189,2
2190,2
2191,0
2192,1
2193,0
2194,1
2195,3
2196,3
2197,1
2198,1
2199,1
2200,1
2201,0
2202,0
2203,0
2204,1
2205,3
2206,3
2207,1
2208,1
2209,0
2210,0
2211,1
2212,0
2213,0
2214,2
2215,0
2216,2
2217,0
2218,0
2219,0
2220,3
2221,3
2222,2
2223,0
2224,3
2225,1
2226,1
2227,1
2228,2
2229,3
2230,3
2231,1
2232,1
2233,0
2234,0
2235,3
2236,0
2237,3
2238,2
2239,2
2240,0
2241,1
2242,0
2243,0
2244,2
2245,3
2246,3
2247,0
2248,0
2249,2
2250,0
2251,2
2252,4
2253,0
2254,0
2255,0
2256,1
2257,0
2258,1
2259,3
2260,1
2261,1
2262,2
2263,3
2264,3
2265,2
2266,0
2267,0
2268,2
2269,2
2270,3
2271,3
2272,1
2273,1
2274,0
2275,0
2276,0
2277,1
2278,2
2279,2
2280,0
2281,1
2282,0
2283,0
2284,3
2285,2
2286,0
2287,3
2288,3
2289,3
2290,1
2291,0
2292,1
2293,2
2294,2
2295,4
2296,0
2297,0
2298,0
2299,3
2300,2
2301,0
2302,1
2303,3
2304,2
2305,0
2306,1
2307,0
2308,2
2309,1
2310,0
2311,4
2312,0
2313,3
2314,3
2315,0
2316,2
2317,0
2318,0
2319,2
2320,0
2321,3
2322,0
2323,2
2324,3
2325,1
2326,2
2327,1
2328,2
2329,2
2330,3
2331,1
2332,0
2333,1
2334,0
2335,1
2336,2
2337,0
2338,0
2339,3
2340,3
2341,0
2342,1
2343,1
2344,0
2345,2
2346,0
2347,0
2348,4
2349,0
2350,2
2351,3
2352,1
2353,2
2354,3
2355,0
2356,0
2357,0
2358,2
2359,2
2360,2
2361,2
2362,1
2363,2
2364,1
2365,0
2366,2
2367,3
2368,0
2369,2
2370,0
2371,0
2372,1
2373,1
2374,2
2375,0
2376,2
2377,2
2378,1
2379,1
2380,1
2381,2
2382,0
2383,1
2384,3
2385,3
2386,2
2387,0
2388,1
2389,0
2390,3
2391,2
2392,0
2393,0
2394,3
2395,3
2396,0
2397,1
2398,2
2399,1
2400,2
2401,2
2402,0
2403,0
2404,2
2405,2
2406,0
2407,3
2408,1
2409,1
2410,1
2411,2
2412,2
2413,2
2414,2
2415,0
2416,4
2417,3
2418,0
2419,0
2420,2
2421,2
2422,1
2423,1
2424,0
2425,2
2426,2
2427,1
2428,1
2429,4
2430,2
2431,1
2432,1
2433,2
2434,3
2435,3
2436,2
2437,2
2438,2
2439,2
2440,2
2441,0
2442,0
2443,3
2444,3
2445,0
2446,2
2447,1
2448,4
2449,0
2450,1
2451,1
2452,2
2453,1
2454,2
2455,0
2456,3
2457,0
2458,2
2459,1
2460,2
2461,0
2462,0
2463,2
2464,0
2465,3
2466,3
2467,3
2468,4
2469,4
2470,0
2471,2
2472,2
2473,2
2474,0
2475,4
2476,0
2477,3
2478,1
2479,2
2480,2
2481,0
2482,1
2483,1
2484,2
2485,0
2486,0
2487,1
2488,0
2489,0
2490,0
2491,2
2492,3
2493,0
2494,1
2495,2
2496,0
2497,2
2498,2
2499,2
2500,1
2501,3
2502,2
2503,1
2504,0
2505,1
2506,2
2507,1
2508,2
2509,0
2510,0
2511,2
2512,2
2513,2
2514,4
2515,0
2516,2
2517,2
2518,1
2519,1
2520,2
2521,1
2522,0
2523,1
2524,2
2525,2
2526,0
2527,3
2528,0
2529,0
2530,3
2531,2
2532,2
2533,1
2534,0
2535,3
2536,4
2537,0
2538,1
2539,0
2540,1
2541,3
2542,4
2543,0
2544,2
2545,4
2546,1
2547,0
2548,1
2549,1
2550,0
2551,0
2552,2
2553,2
2554,4
2555,3
2556,2
2557,0
2558,2
2559,1
2560,1
2561,0
2562,4
2563,1
2564,0
2565,3
2566,1
2567,1
2568,2
2569,2
2570,2
2571,2
2572,4
2573,2
2574,2
2575,2
2576,0
2577,2
2578,0
2579,2
2580,0
2581,2
2582,1
2583,3
2584,1
2585,0
2586,2
2587,0
2588,1
2589,0
2590,4
2591,1
2592,2
2593,0
2594,1
2595,4
2596,3
2597,4
2598,2
2599,0
2600,1
2601,0
2602,4
2603,0
2604,0
2605,3
2606,1
2607,0
2608,4
2609,4
2610,4
2611,1
2612,0
2613,2
2614,0
2615,1
2616,3
2617,0
2618,0
2619,0
2620,2
2621,2
2622,4
2623,0
2624,2
2625,0
2626,2
2627,4
2628,4
2629,0
2630,0
2631,2
2632,2
2633,3
2634,2
2635,1
2636,4
2637,1
2638,0
2639,0
2640,0
2641,4
2642,0
2643,3
2644,3
2645,2
2646,4
2647,2
2648,4
2649,4
2650,0
2651,4
2652,1
2653,1
2654,4
2655,1
2656,4
2657,4
2658,4
2659,1
2660,0
2661,2
2662,4
2663,1
2664,3
2665,2
2666,2
2667,0
2668,2
2669,1
2670,0
2671,0
2672,0
2673,0
2674,3
2675,4
2676,4
2677,4
2678,4
2679,0
2680,4
2681,1
2682,4
2683,4
2684,0
2685,2
2686,1
2687,2
2688,3
2689,2
2690,4
2691,4
2692,0
2693,2
2694,0
2695,1
2696,4
2697,4
2698,1
2699,2
2700,4
2701,1
2702,1
2703,0
2704,2
2705,1
2706,1
2707,4
2708,1
2709,4
2710,2
2711,4
2712,4
2713,2
2714,2
2715,1
2716,4
2717,0
2718,0
2719,4
2720,2
2721,4
2722,4
2723,1
2724,4
2725,4
2726,2
2727,2
2728,2
2729,4
2730,4
2731,1
2732,4
2733,4
2734,0
2735,1
2736,0
2737,1
2738,3
2739,2
2740,2
2741,4
2742,2
2743,0
2744,4
2745,4
2746,1
2747,4
2748,4
2749,0
2750,1
2751,2
2752,4
2753,1
2754,1
2755,2
2756,4
2757,4
2758,4
2759,0
2760,2
2761,3
2762,4
2763,1
2764,4
2765,4
2766,4
2767,4
2768,4
2769,0
2770,0
2771,2
2772,2
2773,4
2774,0
2775,4
2776,3
2777,1
2778,4
2779,2
2780,4
2781,3
2782,1
2783,2
2784,2
2785,1
2786,1
2787,2
2788,2
2789,4
2790,1
2791,2
2792,3
2793,1
2794,0
2795,0
2796,2
2797,1
2798,4
2799,1
2800,2
2801,4
2802,0
2803,0
2804,4
2805,1
2806,3
2807,2
2808,0
2809,2
2810,4
2811,1
2812,1
2813,4
2814,0
2815,2
2816,4
2817,4
2818,1
2819,2
2820,2
2821,1
2822,4
2823,2
2824,2
2825,1
2826,1
2827,1
2828,4
2829,1
2830,1
2831,2
2832,2
2833,2
2834,4
2835,4
2836,1
2837,1
2838,0
2839,0
2840,1
2841,2
2842,2
2843,2
2844,2
2845,1
2846,4
2847,4
2848,2
2849,1
2850,4
2851,2
2852,1
2853,4
2854,1
2855,2
2856,1
2857,2
2858,4
2859,1
2860,2
2861,1
2862,1
2863,2
2864,1
2865,2
2866,0
2867,1
2868,2
2869,2
2870,2
2871,1
2872,4
2873,1
2874,0
2875,4
2876,1
2877,1
2878,1
2879,1
2880,1
2881,2
2882,1
2883,0
2884,1
2885,1
2886,2
2887,0
2888,1
2889,1
2890,4
2891,2
2892,1
2893,4
2894,2
2895,4
2896,0
2897,0
2898,1
2899,4
2900,4
2901,1
2902,4
2903,4
2904,1
2905,1
2906,1
2907,4
2908,1
2909,4
2910,1
2911,0
2912,2
2913,1
2914,1
2915,1
2916,4
2917,0
2918,2
2919,2
2920,2
2921,4
2922,0
2923,2
2924,1
2925,4
2926,0
2927,2
2928,1
2929,2
2930,0
2931,2
2932,4
2933,4
2934,2
2935,2
2936,1
2937,4
2938,4
2939,4
2940,2
2941,4
2942,0
2943,1
2944,2
2945,1
2946,2
2947,1
2948,2
2949,4
2950,4
2951,4
2952,1
2953,2
2954,4
2955,0
2956,4
2957,4
2958,4
2959,4
2960,1
2961,0
2962,1
2963,2
2964,4
2965,0
2966,4
2967,1
2968,1
2969,4
2970,2
2971,0
2972,2
2973,4
2974,4
2975,2
2976,4
2977,2
2978,1
2979,2
2980,4
2981,2
2982,2
2983,4
2984,1
2985,1
2986,0
2987,1
2988,4
2989,4
2990,4
2991,2
2992,0
2993,4
2994,4
2995,0
2996,0
2997,1
2998,0
2999,1
3000,1
3001,1
3002,1
3003,2
3004,0
3005,0
3006,1
3007,4
3008,4
3009,2
3010,0
3011,4
3012,1
3013,1
3014,1
3015,4
3016,2
3017,4
3018,0
3019,1
3020,1
3021,2
3022,1
3023,4
3024,0
3025,2
3026,0
3027,4
3028,4
3029,4
3030,1
3031,0
3032,0
3033,2
3034,1
3035,4
3036,4
3037,0
3038,1
3039,1
3040,0
3041,1
3042,4
3043,4
3044,4
3045,2
3046,4
3047,1
3048,1
3049,4
3050,4
3051,1
3052,2
3053,4
3054,4
3055,4
3056,0
3057,2
3058,1
3059,4
3060,4
3061,4
3062,4
3063,0
3064,2
3065,2
3066,2
3067,1
3068,4
3069,0
3070,4
3071,4
3072,4
3073,4
3074,2
3075,4
3076,1
3077,1
3078,0
3079,1
3080,2
3081,2
3082,1
3083,0
3084,0
3085,0
3086,4
3087,4
3088,4
3089,1
3090,4
3091,4
3092,1
3093,4
3094,2
3095,4
3096,4
3097,1
3098,4
3099,2
3100,2
3101,0
3102,1
3103,1
3104,0
3105,4
3106,4
3107,1
3108,2
3109,4
3110,0
3111,1
3112,4
3113,1
3114,1
3115,2
3116,4
3117,4
3118,0
3119,4
3120,1
3121,0
3122,2
3123,1
3124,4
3125,4
3126,1
3127,4
3128,4
3129,1
3130,2
3131,2
3132,2
3133,4
3134,0
3135,2
3136,1
3137,4
3138,0
3139,1
3140,4
3141,4
3142,4
3143,1
3144,0
3145,0
3146,1
3147,4
3148,4
3149,2
3150,4
3151,2
3152,2
3153,4
3154,0
3155,2
3156,4
3157,4
3158,4
3159,0
3160,2
3161,4
3162,0
3163,0
3164,2
3165,1
3166,2
3167,4
3168,4
3169,0
3170,0
3171,2
3172,2
3173,1
3174,2
3175,4
3176,0
3177,4
3178,2
3179,2
3180,0
3181,0
3182,4
3183,4
3184,4
3185,0
3186,1
3187,2
3188,2
3189,4
3190,4
3191,1
3192,4
3193,4
3194,1
3195,2
3196,1
3197,4
3198,4
3199,4
3200,2
3201,1
3202,1
3203,-1
3204,0
3205,1
3206,1
3207,2
3208,4
3209,2
3210,2
3211,0
3212,2
3213,4
3214,0
3215,1
3216,4
3217,1
3218,0
3219,1
3220,0
3221,2
3222,0
3223,4
3224,1
3225,0
3226,2
3227,2
3228,0
3229,0
3230,1
3231,1
3232,4
3233,4
3234,2
3235,2
3236,4
3237,2
3238,4
3239,4
3240,0
3241,2
3242,4
3243,4
3244,4
3245,2
3246,4
3247,0
3248,2
3249,0
3250,1
3251,4
3252,0
3253,4
3254,0
3255,1
3256,2
3257,0
3258,2
3259,4
3260,0
3261,2
3262,4
3263,1
3264,2
3265,1
3266,4
3267,1
3268,4
3269,2
3270,4
3271,2
3272,0
3273,4
3274,1
3275,2
3276,0
3277,2
3278,-1
3279,0
3280,2
3281,0
3282,4
3283,4
3284,1
3285,1
3286,4
3287,1
3288,0
3289,1
3290,2
3291,2
3292,4
3293,4
3294,2
3295,2
3296,4
3297,4
3298,0
3299,2
3300,4
3301,0
3302,1
3303,2
3304,4
3305,0
3306,2
3307,2
3308,2
3309,0
3310,2
3311,1
3312,2
3313,2
3314,2
3315,4
3316,1
3317,2
3318,0
3319,4
3320,4
3321,4
3322,1
3323,0
3324,4
3325,0
3326,2
3327,2
3328,1
3329,2
3330,4
3331,2
3332,2
3333,4
3334,2
3335,2
3336,0
3337,1
3338,0
3339,0
3340,0
3341,2
3342,1
3343,2
3344,1
3345,4
3346,2
3347,1
3348,0
3349,0
3350,2
3351,2
3352,2
3353,2
3354,2
3355,1
3356,2
3357,1
3358,0
3359,0
3360,2
3361,1
3362,4
3363,2
3364,2
3365,4
3366,4
3367,1
3368,2
3369,2
3370,1
3371,2
3372,4
3373,4
3374,2
3375,0
3376,2
3377,2
3378,2
3379,2
3380,4
3381,4
3382,0
3383,0
3384,1
3385,1
3386,2
3387,1
3388,2
3389,2
3390,2
3391,0
3392,2
3393,4
3394,0
3395,0
3396,1
3397,4
3398,2
3399,0
3400,2
3401,1
3402,2
3403,4
3404,1
3405,4
3406,4
3407,1
3408,2
3409,0
3410,2
3411,4
3412,1
3413,2
3414,0
3415,0
3416,2
3417,2
3418,1
3419,1
3420,0
3421,0
3422,4
3423,2
3424,2
3425,2
3426,1
3427,4
3428,1
3429,0
3430,0
3431,0
3432,2
3433,2
3434,1
3435,4
3436,1
3437,1
3438,2
3439,4
3440,4
3441,1
3442,4
3443,1
3444,4
3445,1
3446,2
3447,0
3448,2
3449,0
3450,4
3451,4
3452,2
3453,1
3454,2
3455,1
3456,2
3457,2
3458,0
3459,4
3460,0
3461,1
3462,2
3463,2
3464,0
3465,1
3466,1
3467,4
3468,4
3469,4
3470,1
3471,4
3472,1
3473,2
3474,2
3475,1
3476,2
3477,4
3478,2
3479,2
3480,2
3481,2
3482,4
3483,1
3484,1
3485,1
3486,2
3487,0
3488,0
3489,1
3490,2
3491,1
3492,2
3493,0
3494,0
3495,1
3496,1
3497,1
3498,0
3499,0
3500,0
3501,1
3502,1
3503,1
3504,1
3505,2
3506,4
3507,2
3508,2
3509,0
3510,1
3511,2
3512,4
3513,2
3514,1
3515,2
3516,2
3517,2
3518,2
3519,1
3520,4
3521,0
3522,1
3523,2
3524,2
3525,2
3526,2
3527,2
3528,1
3529,2
3530,1
3531,1
3532,0
3533,1
3534,2
3535,2
3536,1
3537,1
3538,2
3539,0
3540,0
3541,1
3542,2
3543,4
3544,4
3545,4
3546,2
3547,1
3548,0
3549,4
3550,2
3551,2
3552,2
3553,2
3554,1
3555,2
3556,0
3557,4
3558,4
3559,0
3560,0
3561,4
3562,4
3563,4
3564,2
3565,2
3566,0
3567,2
3568,0
3569,0
3570,4
3571,2
3572,0
3573,2
3574,0
3575,0
3576,1
3577,2
3578,0
3579,2
3580,2
3581,2
3582,2
3583,0
3584,0
3585,1
3586,2
3587,2
3588,1
3589,2
3590,0
3591,2
3592,2
3593,1
3594,1
3595,2
3596,1
3597,0
3598,4
3599,2
3600,4
3601,3
3602,1
3603,4
3604,2
3605,1
3606,1
3607,1
3608,2
3609,1
3610,2
3611,2
3612,2
3613,2
3614,4
3615,2
3616,0
3617,2
3618,2
3619,2
3620,4
3621,2
3622,2
3623,2
3624,2
3625,1
3626,2
3627,0
3628,2
3629,1
3630,2
3631,2
3632,1
3633,2
3634,0
3635,2
3636,2
3637,1
3638,2
3639,3
3640,2
3641,0
3642,1
3643,1
3644,1
3645,4
3646,1
3647,2
3648,0
3649,2
3650,2
3651,2
3652,1
3653,2
3654,2
3655,2
3656,2
3657,2
3658,2
3659,1
3660,1
3661,0
3662,0
3663,0
3664,1
3665,2
3666,2
3667,0
3668,2
3669,0
3670,1
3671,2
3672,0
3673,0
3674,2
3675,2
3676,2
3677,2
3678,0
3679,1
3680,1
3681,0
3682,2
3683,1
3684,2
3685,0
3686,1
3687,1
3688,0
3689,1
3690,2
3691,1
3692,2
3693,2
3694,1
3695,2
3696,2
3697,2
3698,1
3699,1
3700,0
3701,2
3702,0
3703,0
3704,0
3705,0
3706,2
3707,2
3708,2
3709,-1
3710,2
3711,1
3712,0
3713,1
3714,2
3715,2
3716,1
3717,1
3718,1
3719,0
3720,2
3721,2
3722,1
3723,1
3724,2
3725,1
3726,2
3727,0
3728,2
3729,2
3730,0
3731,2
3732,1
3733,1
3734,2
3735,1
3736,2
3737,0
3738,2
3739,2
3740,1
3741,0
3742,2
3743,1
3744,1
3745,0
3746,2
3747,2
3748,0
3749,2
3750,3
3751,2
3752,2
3753,0
3754,2
3755,1
3756,1
3757,2
3758,2
3759,2
3760,2
3761,0
3762,1
3763,2
3764,0
3765,0
3766,0
3767,2
3768,0
3769,0
3770,0
3771,1
3772,2
3773,2
3774,1
3775,1
3776,0
3777,0
3778,2
3779,2
3780,0
3781,0
3782,2
3783,2
3784,2
3785,2
3786,2
3787,0
3788,2
3789,2
3790,2
3791,0
3792,2
3793,1
3794,2
3795,2
3796,2
3797,2
3798,1
3799,1
3800,1
3801,2
3802,2
3803,2
3804,2
3805,2
3806,2
3807,1
3808,2
3809,0
3810,1
3811,2
3812,2
3813,1
3814,2
3815,2
3816,2
3817,1
3818,1
3819,2
3820,0
3821,2
3822,2
3823,2
3824,2
3825,2
3826,1
3827,2
3828,1
3829,0
3830,2
3831,2
3832,0
3833,2
3834,1
3835,2
3836,2
3837,1
3838,1
3839,0
3840,3
3841,2
3842,1
3843,2
3844,2
3845,1
3846,1
3847,2
3848,1
3849,2
3850,2
3851,2
3852,0
3853,0
3854,1
3855,1
3856,2
3857,2
3858,2
3859,2
3860,2
3861,2
3862,1
3863,3
3864,1
3865,2
3866,1
3867,1
3868,2
3869,1
3870,2
3871,3
3872,2
3873,2
3874,0
3875,2
3876,2
3877,1
3878,1
3879,1
3880,2
3881,1
3882,2
3883,2
3884,2
3885,1
3886,2
3887,2
3888,1
3889,4
3890,2
3891,2
3892,2
3893,2
3894,0
3895,1
3896,1
3897,1
3898,2
3899,1
3900,1
3901,2
3902,0
3903,2
3904,0
3905,1
3906,4
3907,1
3908,2
3909,1
3910,1
3911,1
3912,2
3913,2
3914,0
3915,1
3916,2
3917,3
3918,2
3919,-1
3920,2
3921,1
3922,1
3923,2
3924,3
3925,2
3926,2
3927,2
3928,1
3929,2
3930,1
3931,1
3932,1
3933,2
3934,2
3935,4
3936,1
3937,2
3938,2
3939,0
3940,0
3941,0
3942,0
3943,0
3944,2
3945,1
3946,4
3947,2
3948,0
3949,2
3950,0
3951,0
3952,1
3953,4
3954,0
3955,1
3956,1
3957,1
3958,2
3959,0
3960,2
3961,2
3962,1
3963,4
3964,2
3965,2
3966,0
3967,0
3968,1
3969,1
3970,2
3971,0
3972,0
3973,3
3974,2
3975,2
3976,1
3977,0
3978,0
3979,0
3980,2
3981,4
3982,0
3983,0
3984,0
3985,2
3986,2
3987,1
3988,1
3989,3
3990,0
3991,2
3992,2
3993,2
3994,0
3995,0
3996,0
3997,4
3998,2
3999,4
4000,2
4001,4
4002,4
4003,2
4004,0
4005,0
4006,3
4007,0
4008,0
4009,0
4010,2
4011,0
4012,0
4013,1
4014,2
4015,2
4016,4
4017,3
4018,1
4019,2
4020,1
4021,0
4022,2
4023,2
4024,0
4025,1
4026,2
4027,1
4028,1
4029,1
4030,0
4031,1
4032,2
4033,3
4034,3
4035,2
4036,0
4037,0
4038,2
4039,4
4040,4
4041,0
4042,0
4043,0
4044,1
4045,0
4046,2
4047,2
4048,2
4049,2
4050,0
4051,4
4052,1
4053,2
4054,3
4055,3
4056,1
4057,0
4058,0
4059,0
4060,1
4061,0
4062,1
4063,2
4064,0
4065,2
4066,2
4067,0
4068,2
4069,4
4070,1
4071,2
4072,1
4073,3
4074,3
4075,3
4076,4
4077,2
4078,2
4079,4
4080,3
4081,1
4082,0
4083,0
4084,0
4085,1
4086,3
4087,2
4088,2
4089,0
4090,2
4091,2
4092,0
4093,0
4094,0
4095,3
4096,2
4097,1
4098,2
4099,2
4100,4
4101,0
4102,0
4103,1
4104,2
4105,3
4106,1
4107,2
4108,1
4109,2
4110,3
4111,0
4112,0
4113,0
4114,1
4115,1
4116,1
4117,2
4118,2
4119,3
4120,2
4121,0
4122,2
4123,2
4124,0
4125,0
4126,0
4127,3
4128,1
4129,0
4130,1
4131,2
4132,4
4133,2
4134,2
4135,1
4136,3
4137,0
4138,2
4139,4
4140,2
4141,2
4142,2
4143,0
4144,0
4145,1
4146,0
4147,0
4148,1
4149,0
4150,2
4151,2
4152,3
4153,0
4154,3
4155,1
4156,0
4157,0
4158,3
4159,2
4160,1
4161,3
4162,2
4163,2
4164,1
4165,0
4166,0
4167,0
4168,3
4169,0
4170,3
4171,0
4172,0
4173,3
4174,1
4175,2
4176,0
4177,1
4178,0
4179,3
4180,1
4181,1
4182,4
4183,3
4184,1
4185,0
4186,2
4187,2
4188,1
4189,0
4190,1
4191,0
4192,2
4193,2
4194,1
4195,3
4196,2
4197,3
4198,0
4199,1
4200,0
4201,0
4202,0
4203,2
4204,2
4205,1
4206,0
4207,0
4208,0
4209,2
4210,2
4211,3
4212,1
4213,1
4214,0
4215,0
4216,2
4217,0
4218,0
4219,1
4220,3
4221,0
4222,3
4223,0
4224,3
4225,2
4226,1
4227,2
4228,3
4229,1
4230,0
4231,4
4232,0
4233,0
4234,1
4235,2
4236,2
4237,0
4238,0
4239,1
4240,0
4241,0
4242,2
4243,2
4244,3
4245,0
4246,0
4247,3
4248,3
4249,1
4250,0
4251,2
4252,4
4253,0
4254,3
4255,2
4256,0
4257,0
4258,0
4259,4
4260,0
4261,0
4262,3
4263,1
4264,0
4265,0
4266,0
4267,0
4268,2
4269,2
4270,0
4271,0
4272,0
4273,3
4274,3
4275,3
4276,0
4277,0
4278,2
4279,4
4280,2
4281,3
4282,2
4283,3
4284,2
4285,3
4286,3
4287,0
4288,3
4289,1
4290,3
4291,1
4292,0
4293,4
4294,1
4295,3
4296,0
4297,0
4298,2
4299,4
4300,1
4301,0
4302,0
4303,2
4304,3
4305,1
4306,0
4307,3
4308,1
4309,0
4310,1
4311,0
4312,2
4313,2
4314,0
4315,1
4316,0
4317,3
4318,4
4319,4
4320,3
4321,3
4322,1
4323,1
4324,1
4325,2
4326,1
4327,1
4328,0
4329,2
4330,2
4331,0
4332,0
4333,3
4334,0
4335,1
4336,0
4337,0
4338,1
4339,1
4340,0
4341,0
4342,1
4343,0
4344,4
4345,2
4346,3
4347,4
4348,0
4349,3
4350,3
4351,2
4352,2
4353,2
4354,2
4355,3
4356,3
4357,0
4358,0
4359,4
4360,0
4361,2
4362,3
4363,0
4364,2
4365,2
4366,4
4367,0
4368,1
4369,3
4370,0
4371,0
4372,1
4373,1
4374,2
4375,3
4376,2
4377,3
4378,0
4379,2
4380,1
4381,0
4382,0
4383,4
4384,0
4385,0
4386,3
4387,0
4388,0
4389,2
4390,3
4391,3
4392,2
4393,0
4394,2
4395,2
4396,2
4397,4
4398,2
4399,0
4400,3
4401,1
4402,0
4403,3
4404,0
4405,0
4406,1
4407,2
4408,2
4409,3
4410,4
4411,0
4412,0
4413,3
4414,0
4415,0
4416,0
4417,1
4418,1
4419,0
4420,3
4421,3
4422,0
4423,0
4424,0
4425,0
4426,2
4427,3
4428,0
4429,0
4430,2
4431,4
4432,0
4433,0
4434,0
4435,0
4436,0
4437,1
4438,3
4439,2
4440,3
4441,0
4442,2
4443,2
4444,3
4445,0
4446,1
4447,0
4448,2
4449,1
4450,2
4451,1
4452,2
4453,2
4454,3
4455,3
4456,3
4457,4
4458,0
4459,0
4460,1
4461,3
4462,0
4463,3
4464,1
4465,0
4466,0
4467,2
4468,0
4469,0
4470,1
4471,3
4472,3
4473,0
4474,0
4475,1
4476,1
4477,0
4478,4
4479,0
4480,1
4481,1
4482,2
4483,3
4484,2
4485,0
4486,0
4487,0
4488,2
4489,3
4490,2
4491,0
4492,0
4493,1
4494,1
4495,1
4496,0
4497,4
4498,0
4499,0
4500,1
4501,2
4502,0
4503,0
4504,2
4505,1
4506,1
4507,2
4508,0
4509,1
4510,2
4511,3
4512,0
4513,1
4514,0
4515,0
4516,0
4517,1
4518,2
4519,2
4520,2
4521,0
4522,0
4523,1
4524,2
4525,3
4526,0
4527,2
4528,1
4529,3
4530,0
4531,0
4532,2
4533,2
4534,0
4535,0
4536,0
4537,2
4538,1
4539,1
4540,0
4541,0
4542,2
4543,1
4544,0
4545,0
4546,2
4547,4
4548,0
4549,2
4550,0
4551,0
4552,0
4553,2
4554,2
4555,0
4556,0
4557,1
4558,2
4559,2
4560,3
4561,4
4562,0
4563,0
4564,2
4565,2
4566,1
4567,1
4568,0
4569,2
4570,0
4571,0
4572,2
4573,3
4574,0
4575,0
4576,0
4577,0
4578,4
4579,1
4580,2
4581,0
4582,4
4583,0
4584,0
4585,2
4586,0
4587,1
4588,0
4589,2
4590,0
4591,0
4592,2
4593,4
4594,0
4595,0
4596,0
4597,2
4598,2
4599,0
4600,2
4601,0
4602,0
4603,2
4604,3
4605,0
4606,2
4607,2
4608,1
4609,2
4610,2
4611,2
4612,3
4613,2
4614,1
4615,3
4616,4
4617,3
4618,1
4619,0
4620,2
4621,0
4622,2
4623,2
4624,0
4625,0
4626,2
4627,2
4628,2
4629,0
4630,1
4631,2
4632,3
4633,0
4634,2
4635,1
4636,1
4637,2
4638,0
4639,0
4640,0
4641,0
4642,3
4643,2
4644,2
4645,4
4646,0
4647,1
4648,1
4649,2
4650,0
4651,1
4652,1
4653,2
4654,0
4655,2
4656,2
4657,2
4658,1
4659,0
4660,1
4661,3
4662,2
4663,2
4664,1
4665,2
4666,0
4667,0
4668,1
4669,0
4670,2
4671,2
4672,3
4673,1
4674,3
4675,0
4676,0
4677,0
4678,0
4679,2
4680,2
4681,2
4682,3
4683,0
4684,3
4685,3
4686,0
4687,2
4688,0
4689,2
4690,2
4691,2
4692,2
4693,1
4694,2
4695,2
4696,2
4697,3
4698,1
4699,2
4700,2
4701,2
4702,2
4703,1
4704,1
4705,2
4706,1
4707,2
4708,1
4709,0
4710,1
4711,0
4712,3
4713,2
4714,2
4715,2
4716,2
4717,2
4718,0
4719,2
4720,3
4721,1
4722,2
4723,2
4724,0
4725,0
4726,0
4727,2
4728,3
4729,1
4730,2
4731,0
4732,0
4733,2
4734,1
4735,0
4736,2
4737,2
4738,3
4739,1
4740,1
4741,0
4742,0
4743,0
4744,0
4745,0
4746,2
4747,2
4748,1
4749,2
4750,3
4751,0
4752,0
4753,2
4754,2
4755,2
4756,2
4757,1
4758,0
4759,0
4760,0
4761,3
4762,0
4763,0
4764,0
4765,1
4766,2
4767,1
4768,2
4769,0
4770,0
4771,0
4772,1
4773,2
4774,2
4775,3
4776,1
4777,0
4778,0
4779,1
4780,0
4781,0
4782,0
4783,1
4784,1
4785,0
4786,2
4787,1
4788,3
4789,0
4790,0
4791,0
4792,0
4793,2
4794,2
4795,2
4796,2
4797,2
4798,0
4799,2
4800,0
4801,0
4802,2
4803,1
4804,2
4805,1
4806,0
4807,2
4808,0
4809,0
4810,2
4811,2
4812,3
4813,2
4814,0
4815,3
4816,0
4817,2
4818,0
4819,0
4820,0
4821,2
4822,0
4823,1
4824,0
4825,0
4826,0
4827,0
4828,0
4829,2
4830,2
4831,0
4832,2
4833,2
4834,2
4835,3
4836,2
4837,0
4838,0
4839,0
4840,0
4841,0
4842,2
4843,1
4844,0
4845,0
4846,1
4847,3
4848,0
4849,3
4850,1
4851,1
4852,2
4853,0
4854,2
4855,0
4856,3
4857,1
4858,0
4859,0
4860,3
4861,2
4862,0
4863,0
4864,2
4865,1
4866,0
4867,0
4868,0
4869,1
4870,1
4871,2
4872,0
4873,0
4874,2
4875,2
4876,0
4877,3
4878,0
4879,0
4880,0
4881,3
4882,0
4883,1
4884,2
4885,3
4886,0
4887,0
4888,2
4889,2
4890,2
4891,2
4892,0
4893,1
4894,1
4895,1
4896,3
4897,2
4898,1
4899,2
4900,0
4901,3
4902,0
4903,2
4904,1
4905,0
4906,2
4907,2
4908,0
4909,0
4910,0
4911,0
4912,2
4913,0
4914,1
4915,0
4916,3
4917,3
4918,1
4919,1
4920,3
4921,0
4922,2
4923,1
4924,2
4925,0
4926,2
4927,2
4928,2
4929,3
4930,0
4931,2
4932,0
4933,1
4934,2
4935,0
4936,1
4937,3
4938,-1
4939,2
4940,0
4941,0
4942,0
4943,0
4944,0
4945,2
4946,0
4947,2
4948,3
4949,0
4950,0
4951,0
4952,1
4953,0
4954,0
4955,0
4956,0
4957,0
4958,1
4959,2
4960,1
4961,0
4962,0
4963,0
4964,0
4965,0
4966,2
4967,1
4968,1
4969,0
4970,0
4971,0
4972,0
4973,3
4974,0
4975,0
4976,1
4977,0
4978,2
4979,1
4980,0
4981,3
4982,0
4983,0
4984,0
4985,0
4986,0
4987,1
4988,0
4989,0
4990,3
4991,0
4992,0
4993,3
4994,2
4995,1
4996,2
4997,0
4998,0
4999,0
5000,1
5001,0
5002,0
5003,2
5004,0
5005,3
5006,2
5007,0
5008,0
5009,1
5010,2
5011,0
5012,0
5013,0
5014,3
5015,0
5016,0
5017,0
5018,2
5019,2
5020,0
5021,0
5022,0
5023,1
5024,0
5025,1
5026,0
5027,1
5028,3
5029,1
5030,0
5031,1
5032,0
5033,0
5034,1
5035,3
5036,0
5037,1
5038,0
5039,0
5040,3
5041,2
5042,0
5043,1
5044,2
5045,0
5046,0
5047,1
5048,1
5049,4
5050,0
5051,1
5052,0
5053,2
5054,2
5055,2
5056,2
5057,1
5058,0
5059,0
5060,3
5061,2
5062,0
5063,0
5064,0
5065,3
5066,0
5067,0
5068,3
5069,1
5070,3
5071,4
5072,4
5073,0
5074,0
5075,0
5076,0
5077,0
5078,4
5079,0
5080,0
5081,0
5082,0
5083,0
5084,0
5085,2
5086,2
5087,0
5088,2
5089,0
5090,0
5091,2
5092,3
5093,0
5094,1
5095,2
5096,4
5097,0
5098,0
5099,2
5100,3
5101,0
5102,2
5103,0
5104,0
5105,0
5106,1
5107,0
5108,0
5109,1
5110,0
5111,0
5112,0
5113,2
5114,0
5115,2
5116,1
5117,4
5118,1
5119,2
5120,0
5121,0
5122,2
5123,0
5124,1
5125,0
5126,0
5127,4
5128,0
5129,3
5130,0
5131,1
5132,2
5133,1
5134,0
5135,0
5136,2
5137,1
5138,0
5139,0
5140,3
5141,1
5142,0
5143,0
5144,2
5145,2
5146,0
5147,1
5148,1
5149,0
5150,1
5151,1
5152,0
5153,4
5154,2
5155,0
5156,4
5157,0
5158,1
5159,0
5160,1
5161,0
5162,0
5163,0
5164,0
5165,0
5166,0
5167,0
5168,2
5169,0
5170,0
5171,1
5172,0
5173,3
5174,0
5175,0
5176,4
5177,2
5178,4
5179,2
5180,2
5181,1
5182,0
5183,0
5184,0
5185,0
5186,0
5187,0
5188,0
5189,0
5190,0
5191,0
5192,0
5193,0
5194,0
5195,3
5196,0
5197,1
5198,0
5199,0
5200,0
5201,1
5202,1
5203,0
5204,1
5205,0
5206,4
5207,4
5208,0
5209,0
5210,1
5211,1
5212,0
5213,2
5214,0
5215,0
5216,0
5217,1
5218,0
5219,0
5220,0
5221,0
5222,3
5223,0
5224,0
5225,1
5226,0
5227,0
5228,0
5229,0
5230,0
5231,0
5232,0
5233,0
5234,4
5235,4
5236,2
5237,0
5238,1
5239,0
5240,1
5241,0
5242,1
5243,1
5244,0
5245,0
5246,1
5247,0
5248,0
5249,1
5250,0
5251,0
5252,0
5253,1
5254,0
5255,0
5256,2
5257,0
5258,0
5259,0
5260,2
5261,0
5262,0
5263,1
5264,0
5265,0
5266,0
5267,0
5268,1
5269,0
5270,0
5271,0
5272,0
5273,0
5274,0
5275,2
5276,0
5277,0
5278,1
5279,0
5280,0
5281,0
5282,1
5283,4
5284,0
5285,0
5286,0
5287,1
5288,0
5289,1
5290,0
5291,0
5292,2
5293,0
5294,0
5295,2
5296,0
5297,0
5298,0
5299,1
5300,0
5301,1
5302,2
5303,0
5304,0
5305,2
5306,0
5307,1
5308,2
5309,0
5310,2
5311,0
5312,0
5313,0
5314,0
5315,0
5316,0
5317,0
5318,0
5319,0
5320,2
5321,0
5322,0
5323,1
5324,1
5325,0
5326,1
5327,0
5328,1
5329,1
5330,0
5331,0
5332,0
5333,1
5334,0
5335,0
5336,1
5337,0
5338,1
5339,0
5340,0
5341,0
5342,0
5343,2
5344,0
5345,0
5346,1
5347,0
5348,1
5349,2
5350,0
5351,1
5352,1
5353,1
5354,0
5355,2
5356,0
5357,0
5358,0
5359,0
5360,0
5361,0
5362,0
5363,0
5364,1
5365,0
5366,0
5367,0
5368,0
5369,0
5370,0
5371,1
5372,2
5373,0
5374,0
5375,1
5376,1
5377,1
5378,1
5379,0
5380,2
5381,0
5382,0
5383,0
5384,0
5385,0
5386,1
5387,0
5388,0
5389,0
5390,2
5391,0
5392,1
5393,0
5394,1
5395,0
5396,2
5397,2
5398,0
5399,0
5400,1
5401,1
5402,0
5403,0
5404,0
5405,0
5406,0
5407,1
5408,1
5409,1
5410,0
5411,2
5412,0
5413,0
5414,0
5415,0
5416,1
5417,1
5418,0
5419,0
5420,1
5421,1
5422,0
5423,2
5424,0
5425,0
5426,2
5427,2
5428,0
5429,0
5430,0
5431,0
5432,0
5433,0
5434,2
5435,0
5436,0
5437,0
5438,0
5439,1
5440,0
5441,0
5442,2
5443,0
5444,0
5445,0
5446,0
5447,0
5448,2
5449,1
5450,2
5451,0
5452,0
5453,1
5454,1
5455,2
5456,1
5457,1
5458,0
5459,0
5460,0
5461,2
5462,0
5463,1
5464,0
5465,1
5466,1
5467,2
5468,0
5469,0
5470,0
5471,0
5472,2
5473,1
5474,2
5475,0
5476,0
5477,0
5478,2
5479,1
5480,0
5481,0
5482,0
5483,1
5484,2
5485,1
5486,0
5487,2
5488,2
5489,1
5490,0
5491,0
5492,0
5493,1
5494,1
5495,1
5496,0
5497,0
5498,2
5499,0
5500,0
5501,2
5502,2
5503,1
5504,0
5505,0
5506,2
5507,0
5508,2
5509,2
5510,1
5511,2
5512,1
5513,0
5514,1
5515,0
5516,0
5517,1
5518,2
5519,0
5520,0
5521,0
5522,0
5523,0
5524,0
5525,0
5526,1
5527,0
5528,2
5529,2
5530,0
5531,0
5532,2
5533,0
5534,0
5535,0
5536,0
5537,0
5538,2
5539,0
5540,0
5541,0
5542,0
5543,2
5544,0
5545,0
5546,1
5547,0
5548,1
5549,2
5550,0
5551,2
5552,2
5553,2
5554,0
5555,1
5556,1
5557,0
5558,1
5559,2
5560,0
5561,0
5562,0
5563,0
5564,1
5565,0
5566,0
5567,0
5568,0
5569,1
5570,0
5571,0
5572,2
5573,1
5574,0
5575,0
5576,0
5577,0
5578,0
5579,0
5580,0
5581,0
5582,1
5583,1
5584,2
5585,1
5586,0
5587,0
5588,0
5589,0
5590,0
5591,0
5592,0
5593,2
5594,2
5595,0
5596,0
5597,0
5598,1
5599,2
5600,0
5601,2
5602,0
5603,0
5604,2
5605,0
5606,0
5607,1
5608,1
5609,2
5610,0
5611,2
5612,1
5613,1
5614,2
5615,0
5616,1
5617,0
5618,1
5619,0
5620,0
5621,0
5622,0
5623,1
5624,0
5625,2
5626,0
5627,0
5628,0
5629,0
5630,0
5631,0
5632,0
5633,0
5634,0
5635,0
5636,1
5637,0
5638,0
5639,0
5640,0
5641,0
5642,0
5643,0
5644,0
5645,0
5646,0
5647,0
5648,0
5649,1
5650,0
5651,0
5652,0
5653,2
5654,0
5655,0
5656,0
5657,0
5658,1
5659,2
5660,1
5661,0
5662,1
5663,0
5664,1
5665,0
5666,1
5667,2
5668,0
5669,0
5670,0
5671,1
5672,0
5673,0
5674,0
5675,0
5676,0
5677,0
5678,0
5679,1
5680,1
5681,1
5682,1
5683,0
5684,0
5685,0
5686,0
5687,0
5688,1
5689,0
5690,1
5691,1
5692,2
5693,0
5694,2
5695,0
5696,1
5697,1
5698,2
5699,2
5700,1
5701,0
5702,0
5703,0
5704,0
5705,0
5706,0
5707,1
5708,2
5709,1
5710,1
5711,1
5712,0
5713,0
5714,0
5715,2
5716,0
5717,1
5718,1
5719,0
5720,1
5721,2
5722,0
5723,1
5724,0
5725,1
5726,0
5727,0
5728,0
5729,2
5730,2
5731,2
5732,2
5733,0
5734,0
5735,1
5736,1
5737,0
5738,1
5739,0
5740,0
5741,0
5742,0
5743,0
5744,2
5745,1
5746,0
5747,2
5748,0
5749,0
5750,1
5751,0
5752,2
5753,2
5754,0
5755,2
5756,1
5757,2
5758,0
5759,0
5760,0
5761,0
5762,2
5763,0
5764,1
5765,1
5766,1
5767,2
5768,0
5769,2
5770,0
5771,3
5772,2
5773,0
5774,0
5775,0
5776,2
5777,0
5778,2
5779,1
5780,2
5781,2
5782,0
5783,2
5784,1
5785,2
5786,1
5787,2
5788,0
5789,0
5790,2
5791,2
5792,2
5793,3
5794,2
5795,1
5796,1
5797,0
5798,0
5799,0
5800,2
5801,0
5802,0
5803,1
5804,0
5805,0
5806,0
5807,0
5808,0
5809,1
5810,2
5811,2
5812,0
5813,0
5814,0
5815,2
5816,2
5817,0
5818,1
5819,2
5820,0
5821,2
5822,2
5823,2
5824,0
5825,0
5826,1
5827,0
5828,0
5829,2
5830,2
5831,2
5832,2
5833,2
5834,0
5835,2
5836,0
5837,0
5838,4
5839,4
5840,2
5841,2
5842,1
5843,2
5844,2
5845,1
5846,0
5847,2
5848,0
5849,1
5850,0
5851,0
5852,1
5853,0
5854,0
5855,0
5856,1
5857,3
5858,1
5859,0
5860,2
5861,3
5862,3
5863,1
5864,4
5865,0
5866,1
5867,2
5868,2
5869,1
5870,0
5871,0
5872,0
5873,0
5874,3
5875,0
5876,0
5877,1
5878,0
5879,1
5880,0
5881,0
5882,0
5883,1
5884,1
5885,2
5886,0
5887,0
5888,3
5889,1
5890,0
5891,0
5892,0
5893,1
5894,1
5895,0
5896,1
5897,2
5898,0
5899,0
5900,1
5901,1
5902,3
5903,2
5904,0
5905,0
5906,0
5907,2
5908,2
5909,0
5910,-1
5911,0
5912,0
5913,4
5914,3
5915,0
5916,2
5917,3
5918,0
5919,0
5920,0
5921,0
5922,1
5923,1
5924,1
5925,3
5926,1
5927,0
5928,2
5929,2
5930,0
5931,0
5932,4
5933,2
5934,2
5935,0
5936,0
5937,0
5938,2
5939,1
5940,3
5941,1
5942,0
5943,0
5944,2
5945,1
5946,0
5947,0
5948,2
5949,2
5950,0
5951,0
5952,3
5953,0
5954,0
5955,1
5956,0
5957,0
5958,2
5959,2
5960,0
5961,1
5962,2
5963,1
5964,2
5965,0
5966,0
5967,0
5968,2
5969,2
5970,3
5971,3
5972,0
5973,0
5974,2
5975,2
5976,2
5977,4
5978,3
5979,2
5980,0
5981,0
5982,1
5983,2
5984,0
5985,2
5986,0
5987,0
5988,2
5989,1
5990,2
5991,0
5992,2
5993,0
5994,0
5995,2
5996,1
5997,0
5998,0
5999,2
6000,3
6001,3
6002,2
6003,1
6004,2
6005,2
6006,0
6007,4
6008,0
6009,2
6010,2
6011,0
6012,0
6013,0
6014,0
6015,0
6016,1
6017,3
6018,0
6019,2
6020,2
6021,0
6022,4
6023,0
6024,1
6025,2
6026,2
6027,3
6028,0
6029,3
6030,0
6031,2
6032,0
6033,2
6034,0
6035,3
6036,0
6037,0
6038,1
6039,0
6040,2
6041,2
6042,1
6043,1
6044,0
6045,4
6046,0
6047,0
6048,3
6049,2
6050,0
6051,2
6052,0
6053,0
6054,2
6055,0
6056,0
6057,0
6058,3
6059,0
6060,1
6061,0
6062,2
6063,0
6064,0
6065,2
6066,0
6067,2
6068,2
6069,2
6070,0
6071,3
6072,2
6073,1
6074,1
6075,0
6076,1
6077,0
6078,4
6079,3
6080,1
6081,0
6082,0
6083,0
6084,1
6085,2
6086,0
6087,0
6088,2
6089,2
6090,3
6091,1
6092,2
6093,2
6094,2
6095,1
6096,0
6097,0
6098,1
6099,0
6100,2
6101,0
6102,0
6103,1
6104,1
6105,0
6106,0
6107,2
6108,4
6109,1
6110,0
6111,3
6112,0
6113,2
6114,3
6115,3
6116,0
6117,2
6118,2
6119,0
6120,2
6121,2
6122,0
6123,0
6124,2
6125,0
6126,2
6127,0
6128,1
6129,2
6130,1
6131,2
6132,2
6133,0
6134,2
6135,0
6136,0
6137,3
6138,1
6139,0
6140,3
6141,0
6142,1
6143,3
6144,0
6145,2
6146,1
6147,0
6148,0
6149,2
6150,3
6151,2
6152,3
6153,1
6154,1
6155,2
6156,0
6157,0
6158,2
6159,3
6160,0
6161,3
6162,2
6163,0
6164,2
6165,1
6166,0
6167,0
6168,2
6169,0
6170,0
6171,1
6172,0
6173,2
6174,1
6175,2
6176,1
6177,2
6178,0
6179,0
6180,3
6181,0
6182,1
6183,0
6184,1
6185,3
6186,3
6187,2
6188,0
6189,0
6190,3
6191,0
6192,2
6193,0
6194,3
6195,3
6196,1
6197,2
6198,2
6199,3
6200,1
6201,1
6202,0
6203,0
6204,0
6205,1
6206,3
6207,3
6208,3
6209,0
6210,0
6211,0
6212,0
6213,3
6214,0
6215,2
6216,0
6217,2
6218,3
6219,1
6220,1
6221,0
6222,0
6223,2
6224,3
6225,3
6226,0
6227,1
6228,3
6229,1
6230,3
6231,3
6232,2
6233,1
6234,1
6235,0
6236,1
6237,1
6238,1
6239,0
6240,0
6241,3
6242,1
6243,0
6244,3
6245,1
6246,0
6247,1
6248,0
6249,1
6250,3
6251,0
6252,0
6253,1
6254,1
6255,3
6256,3
6257,1
6258,0
6259,3
6260,1
6261,0
6262,2
6263,0
6264,1
6265,0
6266,2
6267,1
6268,2
6269,0
6270,1
6271,3
6272,0
6273,0
6274,0
6275,0
6276,3
6277,0
6278,3
6279,0
6280,0
6281,1
6282,0
6283,3
6284,0
6285,3
6286,0
6287,1
6288,1
6289,0
6290,3
6291,0
6292,0
6293,0
6294,1
6295,-1
6296,1
6297,3
6298,0
6299,2
6300,0
6301,0
6302,0
6303,0
6304,1
6305,1
6306,1
6307,3
6308,3
6309,1
6310,2
6311,1
6312,0
6313,0
6314,0
6315,1
6316,0
6317,0
6318,0
6319,1
6320,0
6321,3
6322,3
6323,3
6324,1
6325,0
6326,0
6327,1
6328,0
6329,0
6330,3
6331,3
6332,0
6333,3
6334,0
6335,1
6336,3
6337,0
6338,1
6339,0
6340,0
6341,2
6342,3
6343,1
6344,1
6345,1
6346,1
6347,3
6348,1
6349,0
6350,0
6351,2
6352,3
6353,3
6354,3
6355,3
6356,3
6357,1
6358,2
6359,0
6360,1
6361,0
6362,1
6363,3
6364,3
6365,3
6366,0
6367,0
6368,0
6369,1
6370,3
6371,3
6372,0
6373,3
6374,1
6375,3
6376,3
6377,0
6378,0
6379,2
6380,0
6381,3
6382,0
6383,0
6384,1
6385,3
6386,3
6387,0
6388,0
6389,3
6390,0
6391,2
6392,0
6393,3
6394,0
6395,0
6396,1
6397,3
6398,2
6399,0
6400,0
6401,3
6402,0
6403,1
6404,2
6405,1
6406,3
6407,3
6408,1
6409,0
6410,0
6411,1
6412,3
6413,0
6414,0
6415,0
6416,0
6417,2
6418,3
6419,0
6420,3
6421,0
6422,3
6423,3
6424,1
6425,0
6426,0
6427,3
6428,3
6429,0
6430,0
6431,3
6432,2
6433,1
6434,3
6435,3
6436,0
6437,0
6438,1
6439,2
6440,3
6441,2
6442,0
6443,1
6444,3
6445,3
6446,0
6447,1
6448,3
6449,0
6450,0
6451,3
6452,0
6453,3
6454,3
6455,3
6456,3
6457,3
6458,1
6459,1
6460,0
6461,1
6462,1
6463,2
6464,0
6465,0
6466,1
6467,1
6468,0
6469,0
6470,0
6471,1
6472,0
6473,3
6474,3
6475,3
6476,3
6477,0
6478,0
6479,0
6480,3
6481,2
6482,0
6483,1
6484,1
6485,3
6486,0
6487,0
6488,1
6489,0
6490,3
6491,1
6492,1
6493,0
6494,0
6495,1
6496,3
6497,-1
6498,2
6499,0
6500,3
6501,0
6502,0
6503,3
6504,0
6505,1
6506,0
6507,0
6508,0
6509,1
6510,1
6511,3
6512,2
6513,1
6514,0
6515,3
6516,1
6517,1
6518,0
6519,0
6520,0
6521,0
6522,0
6523,0
6524,3
6525,1
6526,0
6527,0
6528,3
6529,0
6530,1
6531,3
6532,1
6533,1
6534,0
6535,3
6536,0
6537,0
6538,0
6539,1
6540,1
6541,0
6542,1
6543,1
6544,2
6545,0
6546,1
6547,1
6548,1
6549,1
6550,0
6551,3
6552,0
6553,1
6554,1
6555,0
6556,3
6557,1
6558,0
6559,1
6560,3
6561,0
6562,0
6563,0
6564,0
6565,2
6566,3
6567,0
6568,2
6569,3
6570,0
6571,1
6572,1
6573,1
6574,1
6575,0
6576,3
6577,3
6578,0
6579,0
6580,0
6581,0
6582,0
6583,1
6584,0
6585,0
6586,1
6587,1
6588,1
6589,1
6590,2
6591,2
6592,0
6593,0
6594,1
6595,1
6596,0
6597,3
6598,0
6599,1
6600,0
6601,1
6602,0
6603,1
6604,0
6605,2
6606,1
6607,1
6608,0
6609,1
6610,0
6611,2
6612,3
6613,0
6614,0
6615,1
6616,1
6617,0
6618,1
6619,1
6620,1
6621,0
6622,0
6623,1
6624,2
6625,1
6626,2
6627,0
6628,0
6629,1
6630,2
6631,0
6632,1
6633,1
6634,0
6635,0
6636,1
6637,0
6638,0
6639,0
6640,1
6641,0
6642,0
6643,1
6644,3
6645,0
6646,0
6647,0
6648,2
6649,0
6650,1
6651,0
6652,0
6653,0
6654,0
6655,0
6656,0
6657,2
6658,0
6659,1
6660,0
6661,0
6662,0
6663,0
6664,1
6665,1
6666,0
6667,1
6668,0
6669,2
6670,1
6671,1
6672,0
6673,1
6674,1
6675,1
6676,0
6677,1
6678,1
6679,1
6680,0
6681,0
6682,1
6683,0
6684,2
6685,0
6686,0
6687,1
6688,0
6689,0
6690,1
6691,0
6692,0
6693,0
6694,1
6695,1
6696,0
6697,0
6698,0
6699,0
6700,0
6701,2
6702,0
6703,0
6704,1
6705,0
6706,1
6707,0
6708,0
6709,1
6710,0
6711,0
6712,1
6713,0
6714,0
6715,0
6716,0
6717,1
6718,1
6719,0
6720,1
6721,1
6722,4
6723,1
6724,0
6725,1
6726,0
6727,1
6728,0
6729,0
6730,1
6731,1
6732,2
6733,0
6734,0
6735,0
6736,0
6737,2
6738,0
6739,0
6740,1
6741,0
6742,1
6743,0
6744,0
6745,1
6746,4
6747,0
6748,0
6749,1
6750,1
6751,0
6752,1
6753,0
6754,0
6755,1
6756,1
6757,1
6758,1
6759,0
6760,1
6761,4
6762,0
6763,0
6764,0
6765,0
6766,0
6767,0
6768,0
6769,0
6770,0
6771,1
6772,0
6773,1
6774,0
6775,1
6776,0
6777,1
6778,0
6779,2
6780,2
6781,1
6782,0
6783,1
6784,1
6785,0
6786,0
6787,0
6788,1
6789,1
6790,0
6791,1
6792,0
6793,2
6794,0
6795,1
6796,0
6797,0
6798,0
6799,0
6800,0
6801,0
6802,1
6803,0
6804,1
6805,2
6806,1
6807,1
6808,0
6809,0
6810,1
6811,1
6812,0
6813,0
6814,1
6815,0
6816,0
6817,0
6818,0
6819,1
6820,1
6821,2
6822,0
6823,1
6824,0
6825,1
6826,0
6827,1
6828,1
6829,1
6830,2
6831,2
6832,1
6833,2
6834,0
6835,0
6836,0
6837,0
6838,0
6839,0
6840,0
6841,0
6842,1
6843,0
6844,0
6845,0
6846,1
6847,1
6848,2
6849,2
6850,1
6851,2
